{
	"properties": 
  	{
		"name":"found_animation",
		"type":"animation",
		"filename":"assets/images/found_animation/found",
		"loopCount": 1,
		"width": 256,
		"height": 256,
		"frames":16,
	},
   	
}