{
	"display_objects": 
	[
		{
			"name":"level1", 
			"filename": "assets/images/thumbnails/BG1.jpg", 
			"width": 400, 
			"height": 384,
			"xPos": 201,
			"yPos": 357,
			"unlocked":true,
			"type": "image",
		},
		{
			"name":"level2", 
			"filename": "assets/images/thumbnails/BG2.jpg", 
			"width": 400, 
			"height": 384,
			"xPos": 572,
			"yPos": 357,
			"unlocked":true,
			"type": "image",
		},
		{
			"name":"level3", 
			"filename": "assets/images/thumbnails/BG3.jpg", 
			"width": 400, 
			"height": 384,
			"xPos": 934,
			"yPos": 357,
			"type": "image",
		},
  		
		{
			"name":"1image", 
			"filename": "assets/images/level_numbers/HO2014_1.png", 
			"width": 256, 
			"height": 200,
			"xPos": 201,
			"yPos": 357,
			"type": "image",
		},
		{
			"name":"2image", 
			"filename": "assets/images/level_numbers/HO2014_2.png", 
			"width": 256, 
			"height": 200,
			"xPos": 572,
			"yPos": 357,
			"type": "image",
		},
		{
			"name":"3image", 
			"filename": "assets/images/level_numbers/HO2014_3.png", 
			"width": 256, 
			"height": 200,
			"xPos": 934,
			"yPos": 357,
			"type": "image",
		},
		{
			"name":"button_level1",  
			"width": 350, 
			"height": 380,
			"xPos": 201,
			"yPos": 357,
			"type": "rect_one_state_button",
			"dispatch":"level1_hit",
		}, 
		{
			"name":"button_level2",  
			"width": 350, 
			"height": 380,
			"xPos": 572,
			"yPos": 357,
			"type": "rect_one_state_button",
			"dispatch":"level2_hit",
		}, 
		{
			"name":"button_level3",  
			"width": 350, 
			"height": 380,
			"xPos": 934,
			"yPos": 357,
			"type": "rect_one_state_button",
			"dispatch":"level3_hit",
		}, 
		
   	]
}